{
  "apis": {
    "bulletin": "https://api.avalanche.report/albina_dev/api/",
    "blog": "https://blogcache.avalanche.report/",
    "cms": "https://cms.avalanche.report/"
  },
  "baseURL": {
    "en": "https://avalanche.report/beta/",
    "de": "https://lawinen.report/beta/",
    "it": "https://valanghe.report/beta/"
  },
  "apiKeys": {
    "google": "AIzaSyBN0GUcRlTfoVnarVFVpA1hUEnDcDjuXQY"
  },
  "blogs": [
    {
      "lang": "de",
      "name": "lawinenwarndienst.blogspot.com",
      "apiType": "blogger",
      "regions": ["AT-07"],
      "params": {
        "id": "7062477220886068374"
      }
    },
    {
      "lang": "en",
      "name": "avalanche-warning-service-tirol.blogspot.com",
      "apiType": "blogger",
      "params": {
        "id": "2617650030094227041"
      }
    },
    {
      "lang": "it",
      "name": "servizio-valanghe-tirolo.blogspot.com",
      "apiType": "blogger",
      "params": {
        "id": "6964779683196470218"
      }
    },
    {
      "lang": "de",
      "name": "lawinensuedtirol.blogspot.com",
      "apiType": "blogger",
      "params": {
        "id": "1263754381945501754"
      }
    },
    {
      "lang": "it",
      "name": "valanghealtoadige.blogspot.com",
      "apiType": "blogger",
      "params": {
        "id": "8922564068473612459"
      }
    },
    {
      "lang": "it",
      "name": "trentinovalanghe.blogspot.com",
      "apiType": "blogger",
      "params": {
        "id": "232334535081247038"
      }
    }
  ],
  "outputDirectory": "/tmp/prerendered/",
  "minDate": "2018-12-03"
}
